<svg xmlns="http://www.w3.org/2000/svg" class="css-g5ufxp" viewBox="0 0 333.806 66.667">
  <switch fill="#fff" transform="scale(1.19048)">
    <g>
      <path d="M2.742 56h17.702c1.555 0 2.376-.211 3.249-2.153L.349 48.074C-.322 50.753-.269 54.321 2.742 56Zm28.411-22.434c-3.089-2.424-6.88-5.629-10.453-8.331-3.921-3.028-7.819-5.338-9.329-5.247-.45.024-.744.199-.744.199.425 4.485-1.381 9.937-3.627 13.737-2.187 3.701-4.743 8.029-6.354 12.104l23.425 5.874c.698-2.901 2.236-4.752 4.288-5.414-2.221-2.49.539-7.18 3.052-7.538-.913-1.37-.659-3.729-.258-5.384zM63.5 16.143a.857.857 0 0 1-.856.858h-.286a.857.857 0 0 1-.857-.858V13H7v1.686c0 1.55.662 2.746 2.248 4.008a2.887 2.887 0 0 1 2.123-.859c2.883.091 6.514 2.632 10.627 5.682 3.865 2.925 7.925 6.374 11.045 8.791h17.104c3.705 0 4.534-1.935 4.823-2.728l2.265-7.612c.515-1.668 1.184-2.558 2.426-2.583h18.954c2.058 0 3.385-1.574 3.385-3.231V13H63.5ZM30.933 17h-5.866C24.478 17 24 16.552 24 16s.478-1 1.067-1h5.866c.589 0 1.067.448 1.067 1s-.478 1-1.067 1zM41 15a1 1 0 1 1 0 2 1 1 0 0 1 0-2zm11.378 6.734-1.487 4.963c-.496 1.325-1.018 2.053-2.482 2.053h-9.801c-2.068 0-2.316-.895-1.985-2.053l.65-2.168c.825-.171 1.708-.465 2.213-.891 1.555 1.382 4.236 2.301 6.012 2.293.959-.004.888-.465.418-.814-1.8-1.344-3.719-3.267-4.204-5.367h8.684c2.065 0 2.313.825 1.982 1.984zM82.022 2.15h-3.407L77 0h-2.692l-1.615 2.15H9.15c-1.122 0-1.65.831-1.65 1.6v8H84V3.769c0-1.019-.856-1.619-1.978-1.619ZM13 9.5h-1v-6h1zm2 0h-1v-6h1zm2 0h-1v-6h1zm2 0h-1v-6h1zm2 0h-1v-6h1zm28.443-3.062c0 .587-.476 1.063-1.062 1.063h-9.563a1.063 1.063 0 0 1-1.063-1.063V6.25h-6.399a.857.857 0 0 1-.857-.857v-.286c0-.473.384-.857.857-.857h6.399v-1h11.687v3.188z"/>
    </g>
  </switch>
  <text xml:space="preserve" x="125.556" y="46.604" fill="#fff" font-family="Roboto" font-size="17.333" font-weight="700" letter-spacing="0" style="line-height:1.25;-inkscape-font-specification:'Roboto Bold'" word-spacing="0"><tspan x="125.556" y="46.604" font-size="37.333" style="-inkscape-font-specification:'Roboto, Bold';font-variant-ligatures:normal;font-variant-caps:normal;font-variant-numeric:normal;font-feature-settings:normal;text-align:start">WEAPONLIB</tspan></text>
</svg>
